Chapter 3 Time-Series Plots | Cooking with Cal-Adapt Climate Data in R
…
To plot the time series from 1950 thru 2099, we have to pick one of the future scenarios.

salns_histrcp45_tbl <- salns_all_tbl %>% 
  filter(cvar == "tasmax", scenario %in% c("historical", "rcp45")) %>% 
  select(dt, gcm, temp_f)

salns_histrcp45_tbl

## # A tibble: 544 x 3
##    dt         gcm        temp_f
##    <date>     <fct>      [degF]
##  1 2020-12-31 HadGEM2-ES   67.9
##  2 2021-12-31 HadGEM2-ES   69.7
##  3 2022-12-31 HadGEM2-ES   69.4
##  4 2023-12-31 HadGEM2-ES   68.9
##  5 2024-12-31 HadGEM2-ES   68.7
##  6 2025-12-31 HadGEM2-ES   69.6
##  7 2026-12-31 HadGEM2-ES   68.9
##  8 2027-12-31 HadGEM2-ES   70.1
##  9 2028-12-31 HadGEM2-ES   67.3
## 10 2029-12-31 HadGEM2-ES   67.6
## # ... with 534 more rows
…
