Chapter 4 Methods for Computing Climate Metrics | Cooking with Cal-Adapt Climate Data in R
…
bkrfld_numhd_tbl %>% 
  group_by(year, scenario) %>% 
  summarize(avg_hd = mean(num_hotday), .groups = "drop") %>% 
  tidyr::pivot_wider(id_cols = year, names_from = scenario, values_from = avg_hd)

## # A tibble: 30 x 3
##     year rcp45 rcp85
##    <dbl> <dbl> <dbl>
##  1  2070  73.5  87.5
##  2  2071  73.2  83  
##  3  2072  75    83.5
##  4  2073  77.5  94.2
##  5  2074  83.5  88.5
##  6  2075  77.5  79  
##  7  2076  71    87  
##  8  2077  65.2  98.2
##  9  2078  70.2  94.8
## 10  2079  82   102  
## # ... with 20 more rows
…
## # A tibble: 6 x 3
##    year scenario avg_num_sumrhd
##   <dbl> <fct>             <dbl>
## 1  2070 rcp45              58.2
## 2  2070 rcp85              66.5
## 3  2071 rcp45              56.8
## 4  2071 rcp85              59  
## 5  2072 rcp45              60.5
## 6  2072 rcp85              62.2

bkrfld_avgnumsumrhd_tbl %>% 
  tidyr::pivot_wider(id_cols = year, names_from = scenario, values_from = avg_num_sumrhd)

## # A tibble: 30 x 3
##     year rcp45 rcp85
##    <dbl> <dbl> <dbl>
##  1  2070  58.2  66.5
##  2  2071  56.8  59  
##  3  2072  60.5  62.2
##  4  2073  65    72  
##  5  2074  63.5  69.2
##  6  2075  59.8  55.2
##  7  2076  56.5  70  
##  8  2077  54    70  
##  9  2078  59    72.5
## 10  2079  59.8  74.2
## # ... with 20 more rows
…
