Chapter 5 AgroClimate Metrics | Cooking with Cal-Adapt Climate Data in R
…
Researchers have looked at a number of ways to measure accumulated chill, and the one that does the best job at predicting phenology events is called Chill Portions (CP) (Luedeling and Brown 2011). The calculations are a bit complicated, but fortunately there’s a R-package that will compute chill portions. For more info, see here.

5.5 Frost Days

Frost Days (FD) are the number of days per year with minimum temperatures (Tn) ≤ 0 °C (Parker et al. 2022). They can be computed with:

colusa_fd_tbl <- colusa_tbl %>% 
  filter(cvar == "tmmn", temp_f <= set_units(0, degC)) %>% 
  group_by(year) %>% 
  summarise(fd = n())

colusa_fd_tbl

## # A tibble: 21 x 2
##     year    fd
##    <dbl> <int>
##  1  2000     9
##  2  2001    14
##  3  2002    16
##  4  2003    10
##  5  2004     9
##  6  2005     5
##  7  2006    11
##  8  2007    23
##  9  2008     8
## 10  2009    24
## # ... with 11 more rows
…
Hot Days (HD) are defined as when Tx > 38 °C (Parker et al. 2022). The number of hot days per year can be computed with:

colusa_hd_tbl <- colusa_tbl %>% 
  filter(cvar == "tmmx", temp_f > set_units(38, degC)) %>% 
  group_by(year) %>% 
  summarise(hd = n())

colusa_hd_tbl

## # A tibble: 21 x 2
##     year    hd
##    <dbl> <int>
##  1  2000    15
##  2  2001    17
##  3  2002    15
##  4  2003    14
##  5  2004     7
##  6  2005    20
##  7  2006    20
##  8  2007     8
##  9  2008    21
## 10  2009    26
## # ... with 11 more rows
…
Create a function that we can pass to group_modify(), will return the number of heatwaves per group (year):

num_hw <- function(data_tbl, key_tbl, num_days = 3) {
  rle_lst <- rle(data_tbl$ehd)
  tibble(num_hw = sum(rle_lst$values & rle_lst$lengths >= num_days))
}

Apply the heatwave function to the grouped tibble:

colusa_hw_tbl <- colusa_grpd_tbl %>% 
  group_modify(.f = num_hw, num_days = 3)

colusa_hw_tbl

## # A tibble: 21 x 2
## # Groups:   year [21]
##     year num_hw
##    <dbl>  <int>
##  1  2000      0
##  2  2001      0
##  3  2002      0
##  4  2003      0
##  5  2004      0
##  6  2005      0
##  7  2006      1
##  8  2007      0
##  9  2008      1
## 10  2009      0
## # ... with 11 more rows
…
